<?xml version="1.0" encoding="utf-8"?>
<!-- Generator: Adobe Illustrator 23.0.2, SVG Export Plug-In . SVG Version: 6.00 Build 0)  -->
<svg version="1.1" id="Layer_1" xmlns="http://www.w3.org/2000/svg" xmlns:xlink="http://www.w3.org/1999/xlink" x="0px" y="0px"
	 viewBox="0 0 459.1 137.7" style="enable-background:new 0 0 459.1 137.7;" xml:space="preserve">
<style type="text/css">
	.st0{fill:#231F20;}
	.st1{fill:#9D9D9D;}
	.st2{fill:#82BD41;}
	.st3{fill:#FFFFFF;}
	.st4{fill:#205A9B;}
	.st5{fill:#81BD41;}
	.st6{font-family:'PTSans-Bold';}
	.st7{font-size:18.7854px;}
	.st8{letter-spacing:1;}
	.st9{font-size:15.0667px;}
</style>
<text transform="matrix(1.0108 0 0 0.95 142.4721 76.0328)" class="st4 st6 st7 st8">OPTIMA LIVING COMMUNITIES</text>
<text transform="matrix(1 0 0 0.97 143.2109 95.1896)" class="st5 st6 st9">Let us welcome you home...</text>
<path class="st5" d="M84.7,65.6c0,2.1-1.7,3.8-3.8,3.8s-3.8-1.7-3.8-3.8c0-2.1,1.7-3.8,3.8-3.8S84.7,63.5,84.7,65.6z"/>
<path class="st2" d="M94.9,94.3c-6.7-1-11.7-6.7-11.7-13.3c0-6.6,4.9-12.2,11.6-13.3c0.2,0,1-0.2,0.9-0.7c0-0.5-0.7-0.5-1-0.5
	c-6.1,0-11.4,3.3-13.9,8.1c-2.5-4.8-7.8-8.1-13.9-8.1c-0.3,0-1,0-1,0.5c0,0.5,0.7,0.6,0.9,0.7c6.7,1.1,11.6,6.6,11.6,13.3
	c0,6.7-4.9,12.3-11.7,13.3c-0.6,0.1-0.9,0.3-0.9,0.6c0,0.5,0.7,0.5,1.1,0.5c6.1,0,11.4-3.3,13.9-8.1c2.5,4.8,7.8,8.1,13.9,8.1
	c0.3,0,1,0,1.1-0.5C95.8,94.6,95.5,94.4,94.9,94.3z"/>
<polygon class="st4" points="46.7,82.7 28.1,82.6 56.9,43 65.8,55 "/>
<g>
	<path class="st4" d="M116.9,82.9c-0.3,0-0.6-0.1-0.8-0.4L80.4,35.2L47.5,82.1c-0.3,0.5-0.9,0.6-1.4,0.2s-0.6-0.9-0.2-1.4l33.7-48
		c0.2-0.3,0.5-0.4,0.8-0.4c0.3,0,0.6,0.1,0.8,0.4l36.5,48.4c0.3,0.4,0.2,1.1-0.2,1.4C117.3,82.8,117.1,82.9,116.9,82.9z"/>
</g>
</svg>
